<?xml version="1.0" encoding="UTF-8"?>
<svg width="38px" height="38px" viewBox="0 0 38 38" version="1.1" xmlns="http://www.w3.org/2000/svg" xmlns:xlink="http://www.w3.org/1999/xlink">
    <!-- Generator: Sketch 46.2 (44496) - http://www.bohemiancoding.com/sketch -->
    <title>btn_expand</title>
    <desc>Created with Sketch.</desc>
    <defs></defs>
    <g id="Dashboard-Design" stroke="none" stroke-width="1" fill="none" fill-rule="evenodd">
        <g id="dashboard_project_detail_light_01" transform="translate(-1389.000000, -971.000000)">
            <g id="btn_expand" transform="translate(1389.000000, 971.000000)">
                <rect id="Rectangle-5" fill="#000000" opacity="0.4" x="0" y="0" width="38" height="38" rx="3"></rect>
                <g id="Group" transform="translate(4.560000, 21.280000)" stroke-width="1.5" stroke="#FFFFFF">
                    <polyline id="Rectangle-7" points="10.64 10.64 0 10.64 0 0"></polyline>
                    <path d="M0.378515625,10.2525781 L9.3929294,1.23816435" id="Path-2"></path>
                </g>
                <g id="Group-Copy" transform="translate(28.120000, 26.600000) scale(-1, 1) translate(-28.120000, -26.600000) translate(22.800000, 21.280000)" stroke-width="1.5" stroke="#FFFFFF">
                    <polyline id="Rectangle-7" points="10.64 10.64 0 10.64 0 0"></polyline>
                    <path d="M0.378515625,10.2525781 L9.3929294,1.23816435" id="Path-2"></path>
                </g>
                <g id="Group" transform="translate(9.880000, 9.880000) scale(1, -1) translate(-9.880000, -9.880000) translate(4.560000, 4.560000)" stroke-width="1.5" stroke="#FFFFFF">
                    <polyline id="Rectangle-7" points="10.64 10.64 0 10.64 0 0"></polyline>
                    <path d="M0.378515625,10.2525781 L9.3929294,1.23816435" id="Path-2"></path>
                </g>
                <g id="Group-Copy" transform="translate(28.120000, 9.880000) scale(-1, -1) translate(-28.120000, -9.880000) translate(22.800000, 4.560000)" stroke-width="1.5" stroke="#FFFFFF">
                    <polyline id="Rectangle-7" points="10.64 10.64 0 10.64 0 0"></polyline>
                    <path d="M0.378515625,10.2525781 L9.3929294,1.23816435" id="Path-2"></path>
                </g>
            </g>
        </g>
    </g>
</svg>