<?xml version="1.0" encoding="UTF-8"?>
<svg width="20px" height="20px" viewBox="0 0 20 20" version="1.1" xmlns="http://www.w3.org/2000/svg" xmlns:xlink="http://www.w3.org/1999/xlink">
    <!-- Generator: Sketch 46.2 (44496) - http://www.bohemiancoding.com/sketch -->
    <title>checkbox_checked</title>
    <desc>Created with Sketch.</desc>
    <defs></defs>
    <g id="Dashboard-Design" stroke="none" stroke-width="1" fill="none" fill-rule="evenodd">
        <g id="dashboard_project_detail_light_01" transform="translate(-36.000000, -424.000000)" stroke="#333333">
            <g id="additional" transform="translate(0.000000, 413.000000)">
                <g id="checkbox_checked">
                    <g transform="translate(36.000000, 11.000000)">
                        <rect id="Rectangle-3" x="0.5" y="0.5" width="19" height="19"></rect>
                        <polyline id="Path-4" points="5.49205583 10.8895263 8.63527785 14.0327483 15.8087254 4.56640625"></polyline>
                    </g>
                </g>
            </g>
        </g>
    </g>
</svg>