<?xml version="1.0" encoding="UTF-8"?>
<svg width="50px" height="50px" viewBox="0 0 50 50" version="1.1" xmlns="http://www.w3.org/2000/svg" xmlns:xlink="http://www.w3.org/1999/xlink">
    <!-- Generator: Sketch 46.2 (44496) - http://www.bohemiancoding.com/sketch -->
    <title>getty_wordmark</title>
    <desc>Created with Sketch.</desc>
    <defs></defs>
    <g id="Dashboard-Design" stroke="none" stroke-width="1" fill="none" fill-rule="evenodd">
        <g id="dashboard_cards_small" fill="#000000">
            <g id="Masthead">
                <g id="getty_wordmark">
                    <path d="M40.1935328,21.3787059 C40.0576673,17.572305 40.0969174,15.6441718 40.0969174,9.78875155 L45.8410072,9.78875155 C47.2268349,9.78875155 49.1395187,9.89754903 50,10.19372 L50,21.1988878 C48.961384,21.3227961 47.6585852,21.3787059 46.3799402,21.3787059 L40.1935328,21.3787059 Z M3.54005012,31.734111 L14.4002295,31.734111 C14.9799221,31.734111 17.8859334,31.8701079 18.5411069,31.3518088 L18.0535008,33.9508598 C18.796232,34.3966273 20.9972525,34.3331621 22.0600223,34.3331621 L32.0884031,34.3331621 C32.6726246,34.3331621 35.5771263,34.4646257 36.2217324,33.9448155 C36.2217324,33.9448155 35.6873283,36.6451086 35.7024244,36.7282178 C35.3144531,36.0784551 33.0273844,36.0784551 32.2212494,36.0784551 L28.5966607,36.0784551 C28.4351318,37.1422527 28.3490837,41.3823325 28.3490837,46.2026655 C28.3490837,47.5837892 28.3490837,48.8394935 28.3521029,50 L42.195284,50 C42.403611,49.0449998 42.4715437,47.8255614 42.4715437,44.9303394 L42.4715437,40.2429811 L37.1652426,31.6313579 C36.0028381,29.7621566 34.7045681,27.6526942 33.9014523,27.0301309 L38.2325413,27.0301309 C38.170647,27.9231769 39.0643398,29.4055426 39.8991576,30.7700444 L44.5744392,38.3722687 C44.5744392,38.3722687 46.6833731,34.9874581 48.7892878,31.6313579 C49.1983938,30.9831062 49.6316536,30.2502342 50,29.5415395 L50,23.1889752 C48.8240089,23.1315543 47.2389119,23.1557315 46.0221612,23.1557315 L36.1220978,23.1557315 C36.4602518,21.0674242 36.7636847,16.2546466 36.7636847,8.57535737 C36.7636847,4.59669377 36.7199058,1.86466802 36.6534827,0 L9.2962169,0 C6.58192687,2.61113965 4.91078168,6.36011968 4.91078168,11.0429448 C4.91078168,20.9767596 10.9718909,28.2102814 21.3882431,28.2102814 C25.5125147,28.2102814 28.4819299,26.8684457 29.5990459,26.2670374 C29.7107575,24.3419263 29.8119018,15.0956511 29.2639111,13.9532775 L32.9352978,13.9532775 C32.6107304,14.794947 32.5895957,18.9398289 32.5895957,20.28922 C32.5895957,21.6401221 32.7073458,27.2431926 32.7073458,27.2431926 C31.6007971,27.7917133 26.880227,29.6548702 21.530147,29.6548702 C6.5004076,29.6548702 1.55792398,19.8797183 1.55792398,12.1566079 C1.55792398,7.15343468 3.48117509,3.01913022 6.52607107,0 L0,0 L0,31.534649 C0.95558709,31.7839765 2.64333806,31.734111 3.54005012,31.734111 Z M46.8509405,8.03288102 C47.9393738,8.03288102 49.1395187,8.05705824 50,7.93314999 L50,0 L40.2493886,0 C40.1542828,2.59602889 40.0969174,5.63933634 40.0969174,8.03288102 L46.8509405,8.03288102 Z M45.3488723,40.2732026 L45.3488723,44.9303394 C45.3488723,47.8134728 45.4273724,49.048022 45.6070167,50 L50,50 L50,32.8266191 L45.3488723,40.2732026 Z M25.2090819,46.2026655 C25.2090819,41.3823325 25.1698318,37.1422527 24.9766009,36.0784551 L21.7414933,36.0784551 C20.3466079,36.0784551 18.6603665,36.0497446 17.5387217,36.7282178 L18.0157604,34.1261446 C17.6202409,33.4839373 15.3377012,33.4839373 14.5285468,33.4839373 L10.849612,33.4839373 C10.6760062,34.5537792 10.58241,38.7847925 10.58241,43.6111699 C10.58241,46.0984013 10.5914676,48.2093747 10.6261888,50 L25.2030434,50 C25.2030434,48.8394935 25.2090819,47.5837892 25.2090819,46.2026655 Z M7.4484466,43.6111699 C7.4484466,38.7847925 7.41825428,34.5537792 7.22200417,33.4839373 L3.22001147,33.4839373 C2.1919628,33.4839373 1.00238519,33.4703376 0,33.7332648 L0,50 L7.41372543,50 C7.44089852,48.2093747 7.4484466,46.0984013 7.4484466,43.6111699 L7.4484466,43.6111699 Z" id="Fill-2"></path>
                </g>
            </g>
        </g>
    </g>
</svg>