<?xml version="1.0" encoding="UTF-8"?>
<svg width="28px" height="21px" viewBox="0 0 28 21" version="1.1" xmlns="http://www.w3.org/2000/svg" xmlns:xlink="http://www.w3.org/1999/xlink">
    <!-- Generator: Sketch 46.2 (44496) - http://www.bohemiancoding.com/sketch -->
    <title>icon_audience_med_gray</title>
    <desc>Created with Sketch.</desc>
    <defs></defs>
    <g id="Dashboard-Design" stroke="none" stroke-width="1" fill="none" fill-rule="evenodd">
        <g id="dashboard_cards_small" transform="translate(-1237.000000, -18.000000)" stroke="#9B9B9B">
            <g id="Masthead">
                <g id="Audience" transform="translate(1238.000000, 19.000000)">
                    <g id="icon_audience_med_gray">
                        <path d="M16,8 C16,9.657 14.657,11 13,11 C11.343,11 10,9.657 10,8 C10,6.343 11.343,5 13,5 C14.657,5 16,6.343 16,8 Z" id="Stroke-1"></path>
                        <path d="M9,20 L9,15.826 C9,13.722 10.8,12 13,12 C15.2,12 17,13.722 17,15.826 L17,20" id="Stroke-3"></path>
                        <path d="M25,3 C25,4.657 23.657,6 22,6 C20.343,6 19,4.657 19,3 C19,1.343 20.343,0 22,0 C23.657,0 25,1.343 25,3 Z" id="Stroke-5"></path>
                        <path d="M18,11.826 C18,9.722 19.8,8 22,8 C24.2,8 26,9.722 26,11.826 L26,16" id="Stroke-7"></path>
                        <path d="M1,3 C1,4.657 2.343,6 4,6 C5.657,6 7,4.657 7,3 C7,1.343 5.657,0 4,0 C2.343,0 1,1.343 1,3 Z" id="Stroke-9"></path>
                        <path d="M8,11.826 C8,9.722 6.2,8 4,8 C1.8,8 0,9.722 0,11.826 L0,16" id="Stroke-11"></path>
                    </g>
                </g>
            </g>
        </g>
    </g>
</svg>